…
### 选择数据


```r
mydata2 <- mydata |> 
  filter(cause == "HIV/AIDS") |> 
  filter(year == 2019)
mydata2
```

```
## # A tibble: 15 × 10
##   measure    location sex    age     cause metric  year
##   <chr>      <chr>    <chr>  <chr>   <chr> <chr>  <dbl>
## 1 Prevalence Global   Male   All ag… HIV/… Number  2019
## 2 Prevalence Global   Female All ag… HIV/… Number  2019
## 3 Prevalence Global   Both   All ag… HIV/… Number  2019
## 4 Prevalence Global   Male   All ag… HIV/… Perce…  2019
## 5 Prevalence Global   Female All ag… HIV/… Perce…  2019
## 6 Prevalence Global   Both   All ag… HIV/… Perce…  2019
## # … with 9 more rows, and 3 more variables: val <dbl>,
## #   upper <dbl>, lower <dbl>
```
…
```
## [1] "Male"   "Female" "Both"
```

-   从 data.csv 文档选择年龄标准化 患病率数据。


```r
data |> 
  filter(age == "Age-standardized") |> 
  filter(metric == "Rate")
```

```
## # A tibble: 180 × 10
##   measure locat…¹ sex   age   cause metric  year    val
##   <chr>   <chr>   <chr> <chr> <chr> <chr>  <dbl>  <dbl>
## 1 Preval… Global  Male  Age-… HIV/… Rate    1990   148.
## 2 Preval… Global  Fema… Age-… HIV/… Rate    1990   147.
## 3 Preval… Global  Both  Age-… HIV/… Rate    1990   147.
## 4 Preval… Global  Male  Age-… Sexu… Rate    1990 11293.
## 5 Preval… Global  Fema… Age-… Sexu… Rate    1990 19439.
## 6 Preval… Global  Both  Age-… Sexu… Rate    1990 15387.
## # … with 174 more rows, 2 more variables: upper <dbl>,
## #   lower <dbl>, and abbreviated variable name
## #   ¹​location
```

-   从 data.csv 文档选择患病人数数据。


```r
data |> 
  filter(metric == "Number")
```

```
## # A tibble: 180 × 10
##   measure locat…¹ sex   age   cause metric  year    val
##   <chr>   <chr>   <chr> <chr> <chr> <chr>  <dbl>  <dbl>
## 1 Preval… Global  Male  All … HIV/… Number  1990 3.87e6
## 2 Preval… Global  Fema… All … HIV/… Number  1990 3.96e6
## 3 Preval… Global  Both  All … HIV/… Number  1990 7.83e6
## 4 Preval… Global  Male  All … Sexu… Number  1990 2.71e8
## 5 Preval… Global  Fema… All … Sexu… Number  1990 4.74e8
## 6 Preval… Global  Both  All … Sexu… Number  1990 7.46e8
## # … with 174 more rows, 2 more variables: upper <dbl>,
## #   lower <dbl>, and abbreviated variable name
## #   ¹​location
```
…
-   在 data.csv 中选择年龄标准化患病率数据，然后生成一列变量 se(标准误）。提示：根据正态性假设，标准误与区间存在以下关系： se=（区间上限-区间下限） /（2\*1.96）。


```r
temp |> 
  filter(age == 'Age-standardized') |> 
  mutate(se = (upper- lower)/(1.96*2))
```

```
## # A tibble: 360 × 11
##   measure    location sex    age     cause metric year 
##   <chr>      <chr>    <chr>  <fct>   <chr> <chr>  <fct>
## 1 Prevalence Global   Male   Age-st… HIV/… Perce… 1990 
## 2 Prevalence Global   Female Age-st… HIV/… Perce… 1990 
## 3 Prevalence Global   Both   Age-st… HIV/… Perce… 1990 
## 4 Prevalence Global   Male   Age-st… HIV/… Rate   1990 
## 5 Prevalence Global   Female Age-st… HIV/… Rate   1990 
## 6 Prevalence Global   Both   Age-st… HIV/… Rate   1990 
## # … with 354 more rows, and 4 more variables:
## #   val <dbl>, upper <dbl>, lower <dbl>, se <dbl>
```
…
```r
## 方法一，用 ifelse：
temp |> 
  mutate(year2 = ifelse(year %in% c(1990:1994),"year:1990_94",
                        ifelse(year%in%c(1995:1999),"year:1995_99",
                        ifelse(year%in%c(2000:2004),"year:2000_04",
                        ifelse(year%in%c(2005:2009),"year:2005_09",
                        ifelse(year%in%c(2010:2014),"year:2010_14",
                                     "year:2015_19"))))))
```

```
## # A tibble: 900 × 11
##   measure    location sex    age     cause metric year 
##   <chr>      <chr>    <chr>  <fct>   <chr> <chr>  <fct>
## 1 Prevalence Global   Male   All ag… HIV/… Number 1990 
## 2 Prevalence Global   Female All ag… HIV/… Number 1990 
## 3 Prevalence Global   Both   All ag… HIV/… Number 1990 
## 4 Prevalence Global   Male   All ag… HIV/… Perce… 1990 
## 5 Prevalence Global   Female All ag… HIV/… Perce… 1990 
## 6 Prevalence Global   Both   All ag… HIV/… Perce… 1990 
## # … with 894 more rows, and 4 more variables:
## #   val <dbl>, upper <dbl>, lower <dbl>, year2 <chr>
```
…
